[gd_resource type="Resource" script_class="FoodData" load_steps=5 format=3 uid="uid://bnpwiocj7aojc"]

[ext_resource type="Texture2D" uid="uid://cm5ynn2b3g6t" path="res://imports/images/BlueParticle.png" id="1_rferi"]
[ext_resource type="Script" path="res://Entities/Food/food_data.gd" id="2_d3l2s"]
[ext_resource type="Texture2D" uid="uid://klkoexqq8j36" path="res://imports/images/blue_arrow.png" id="2_l61xm"]
[ext_resource type="Texture2D" uid="uid://bhu6huymuj70p" path="res://imports/images/BlueFood.png" id="3_j6nmp"]

[resource]
script = ExtResource("2_d3l2s")
type = 0
texture = ExtResource("3_j6nmp")
radar_texture = ExtResource("2_l61xm")
particle_texture = ExtResource("1_rferi")
color = Color(0, 0, 3, 1)
