[gd_resource type="Resource" script_class="FoodData" load_steps=5 format=3 uid="uid://djbe7xv6cdq2f"]

[ext_resource type="Texture2D" uid="uid://b82sxkd3b7s6m" path="res://imports/images/YellowParticle.png" id="1_epjom"]
[ext_resource type="Script" path="res://Entities/Food/food_data.gd" id="2_bp7cb"]
[ext_resource type="Texture2D" uid="uid://c1h6slmiwgmvr" path="res://imports/images/yellow_arrow.png" id="2_cpf1j"]
[ext_resource type="Texture2D" uid="uid://dlbfxg3uentr5" path="res://imports/images/YellowFood.png" id="3_5rv4y"]

[resource]
script = ExtResource("2_bp7cb")
type = 0
texture = ExtResource("3_5rv4y")
radar_texture = ExtResource("2_cpf1j")
particle_texture = ExtResource("1_epjom")
color = Color(3, 3, 0, 1)
